{
  "project": "watest-web",
  "repository": "",
  "endpointDev": "http://localhost:3001",
  "endpointProd": "",
  "dockerImage": "waproject/watest-web",
  "dockerCredentials": "",
  "sentryDsn": "",
  "confirmed": true,
  "slug": "watest-web"
}